=|=                             =|=
=|====   irc.digitalirc.org  ====|
=|=                             =|=
 |     You are now connected to DigitalIRC
 |     
 |     SSL is on port 6697
 |     
 |     For the full list of rules do /rules it will be
 |     assumed by using this service that you have read
 |     and understood them.
